vcd-samples/bgm434/dump.vcd
$date
	Fri Feb 13 07:45:52 2026
$end
$version
	Icarus Verilog
$end
$timescale
	1ns
$end
$scope module ff_fifo_wrapped_in_valid_ready $end
$var wire 1 ! clk $end
$var wire 1 " down_ready $end
$var wire 1 # down_valid $end
$var wire 1 $ fifo_pop $end
$var wire 1 % fifo_push $end
$var wire 1 & rst $end
$var wire 8 ' up_data [7:0] $end
$var wire 1 ( up_ready $end
$var wire 1 ) up_valid $end
$var wire 1 * fifo_full $end
$var wire 1 + fifo_empty $end
$var wire 8 , down_data [7:0] $end
$var parameter 32 - depth $end
$var parameter 32 . width $end
$scope module fifo $end
$var wire 1 ! clk $end
$var wire 1 + empty $end
$var wire 1 * full $end
$var wire 1 $ pop $end
$var wire 1 % push $end
$var wire 8 / read_data [7:0] $end
$var wire 1 & rst $end
$var wire 8 0 write_data [7:0] $end
$var wire 1 1 equal_ptrs $end
$var parameter 32 2 counter_width $end
$var parameter 32 3 depth $end
$var parameter 4 4 max_ptr $end
$var parameter 32 5 pointer_width $end
$var parameter 32 6 width $end
$var reg 4 7 rd_ptr [3:0] $end
$var reg 1 8 rd_ptr_odd_circle $end
$var reg 4 9 wr_ptr [3:0] $end
$var reg 1 : wr_ptr_odd_circle $end
$upscope $end
$upscope $end
$scope module tb $end
$var wire 1 ; up_rdy $end
$var wire 1 < down_vld $end
$var wire 16 = down_data [15:0] $end
$var parameter 32 > width $end
$var reg 1 ? clk $end
$var reg 1 @ comparison_moment $end
$var reg 33 A down_cnt [32:0] $end
$var reg 16 B down_data_compared [15:0] $end
$var reg 16 C down_data_expected [15:0] $end
$var reg 1 D down_rdy $end
$var reg 33 E n_cycles [32:0] $end
$var reg 1 F rst $end
$var reg 33 G up_cnt [32:0] $end
$var reg 16 H up_data [15:0] $end
$var reg 1 I up_vld $end
$var reg 1 J was_reset $end
$var reg 32 K cycle [31:0] $end
$scope module dut $end
$var wire 1 ? clk $end
$var wire 16 L down_data [15:0] $end
$var wire 1 D down_rdy $end
$var wire 1 < down_vld $end
$var wire 1 M fifo_pop $end
$var wire 1 N fifo_push $end
$var wire 16 O fifo_write_data [15:0] $end
$var wire 16 P pipe_up_data [15:0] $end
$var wire 1 Q pipe_up_vld $end
$var wire 1 F rst $end
$var wire 16 R up_data [15:0] $end
$var wire 1 ; up_rdy $end
$var wire 1 I up_vld $end
$var wire 1 S pipe_down_vld $end
$var wire 16 T pipe_down_data [15:0] $end
$var wire 16 U fifo_read_data [15:0] $end
$var wire 1 V fifo_full $end
$var wire 1 W fifo_empty $end
$var parameter 32 X crd_cnt_width $end
$var parameter 32 Y pipeline_depth $end
$var parameter 32 Z width $end
$var reg 3 [ crd_cnt [2:0] $end
$var reg 3 \ new_crd_cnt [2:0] $end
$scope module fifo $end
$var wire 1 ? clk $end
$var wire 1 M pop $end
$var wire 1 N push $end
$var wire 16 ] read_data [15:0] $end
$var wire 1 F rst $end
$var wire 16 ^ write_data [15:0] $end
$var wire 1 V full $end
$var wire 1 W empty $end
$var parameter 32 _ counter_width $end
$var parameter 32 ` depth $end
$var parameter 3 a max_ptr $end
$var parameter 32 b pointer_width $end
$var parameter 32 c width $end
$var reg 3 d cnt [2:0] $end
$var reg 3 e rd_ptr [2:0] $end
$var reg 3 f wr_ptr [2:0] $end
$upscope $end
$scope module pipe $end
$var wire 1 ? clk $end
$var wire 1 F rst $end
$var wire 16 g up_data [15:0] $end
$var wire 1 Q up_vld $end
$var wire 1 h vld_4 $end
$var wire 1 i vld_3 $end
$var wire 1 j vld_2 $end
$var wire 1 k vld_1 $end
$var wire 16 l mul_4_d [15:0] $end
$var wire 16 m mul_3_q [15:0] $end
$var wire 16 n mul_3_d [15:0] $end
$var wire 16 o mul_2_q [15:0] $end
$var wire 16 p mul_2_d [15:0] $end
$var wire 16 q mul_1_q [15:0] $end
$var wire 16 r mul_1_d [15:0] $end
$var wire 1 S down_vld $end
$var wire 16 s down_data [15:0] $end
$var wire 16 t arg_4 [15:0] $end
$var wire 16 u arg_3 [15:0] $end
$var wire 16 v arg_2 [15:0] $end
$var wire 16 w arg_1 [15:0] $end
$var parameter 32 x width $end
$scope module r0 $end
$var wire 1 ? clk $end
$var wire 1 F rst $end
$var wire 16 y up_data [15:0] $end
$var wire 1 Q up_vld $end
$var parameter 32 z w $end
$var reg 16 { down_data [15:0] $end
$var reg 1 k down_vld $end
$upscope $end
$scope module r1 $end
$var wire 1 ? clk $end
$var wire 1 F rst $end
$var wire 32 | up_data [31:0] $end
$var wire 1 k up_vld $end
$var parameter 64 } w $end
$var reg 32 ~ down_data [31:0] $end
$var reg 1 j down_vld $end
$upscope $end
$scope module r2 $end
$var wire 1 ? clk $end
$var wire 1 F rst $end
$var wire 32 !" up_data [31:0] $end
$var wire 1 j up_vld $end
$var parameter 64 "" w $end
$var reg 32 #" down_data [31:0] $end
$var reg 1 i down_vld $end
$upscope $end
$scope module r3 $end
$var wire 1 ? clk $end
$var wire 1 F rst $end
$var wire 32 $" up_data [31:0] $end
$var wire 1 i up_vld $end
$var parameter 64 %" w $end
$var reg 32 &" down_data [31:0] $end
$var reg 1 h down_vld $end
$upscope $end
$scope module r4 $end
$var wire 1 ? clk $end
$var wire 1 F rst $end
$var wire 16 '" up_data [15:0] $end
$var wire 1 h up_vld $end
$var parameter 32 (" w $end
$var reg 16 )" down_data [15:0] $end
$var reg 1 S down_vld $end
$upscope $end
$upscope $end
$upscope $end
$scope begin $ivl_for_loop0 $end
$var integer 32 *" i [31:0] $end
$upscope $end
$upscope $end
$enddefinitions $end
$comment Show the parameter values. $end
$dumpall
b10000 ("
b100000 %"
b100000 ""
b100000 }
b10000 z
b10000 x
b10000 c
b11 b
b100 a
b101 `
b11 _
b10000 Z
b101 Y
b11 X
b10000 >
b1000 6
b100 5
b1001 4
b1010 3
b100 2
b1000 .
b1010 -
$end
#0
$dumpvars
b0 *"
bx )"
bx '"
bx &"
bx $"
bx #"
bx !"
bx ~
bx |
bx {
bx y
bx w
bx v
bx u
bx t
bx s
bx r
bx q
bx p
bx o
bx n
bx m
bx l
xk
xj
xi
xh
bx g
bx f
bx e
bx d
bx ^
bx ]
bx \
bx [
xW
xV
bx U
bx T
xS
bx R
0Q
bx P
bx O
xN
0M
bx L
b0 K
0J
0I
bx H
bx G
xF
bx E
0D
bx C
bx B
bx A
x@
1?
bx =
x<
x;
x:
bx 9
x8
bx 7
x1
bz 0
bx /
bx ,
x+
x*
z)
x(
bz '
z&
x%
x$
x#
z"
z!
$end
#5
0?
#10
0k
b1 K
0@
1?
#15
0?
#20
0j
b10 K
1?
#25
0?
#30
0<
b101 \
1;
0h
0N
0S
b0 f
b0 e
1W
0V
b0 d
b101 [
0i
1F
b11 K
1?
#35
0?
#40
b0 A
b0 G
b0 E
b0 P
b0 g
b0 y
b0 H
b0 R
1J
b100 K
1?
#45
0?
#50
b101 K
1?
#55
0?
#60
b100 \
1Q
1D
1I
0F
b110 K
1?
#65
0?
#70
b11 \
1k
b100 [
b101 P
b101 g
b101 y
b101 H
b101 R
b1 G
b1 E
b0 |
b0 r
b0 w
b0 {
b111 K
1?
#75
0?
#80
b10 \
b0 p
b0 q
b0 !"
b0 v
b11 [
1j
b1010000000000011001 |
b11001 r
b101 w
b101 {
b0 ~
b10 G
b10 E
b10 P
b10 g
b10 y
b10 H
b10 R
b1000 K
1?
#85
0?
#90
b1 \
b0 n
b0 o
b0 $"
b0 u
b1111101 p
b11001 q
b1010000000001111101 !"
b101 v
1i
b10 [
b0 P
b0 g
b0 y
b0 H
b0 R
b11 G
b11 E
b0 #"
b1010000000000011001 ~
b100000000000000100 |
b100 r
b10 w
b10 {
b1001 K
1?
#95
0?
#100
b0 \
b100 q
b1000 p
b100000000000001000 !"
b10 v
b1001110001 n
b1111101 o
b1010000001001110001 $"
b101 u
b0 l
b0 '"
b0 m
b0 t
b1 [
1h
b0 |
b0 r
b0 w
b0 {
b100000000000000100 ~
b1010000000001111101 #"
b0 &"
b100 G
b100 E
b1 P
b1 g
b1 y
b1 H
b1 R
b1010 K
1?
#105
0?
#110
0Q
b0 \
0;
b110000110101 l
b110000110101 '"
b1001110001 m
b101 t
b1000 o
b10000 n
b100000000000010000 $"
b10 u
b0 q
b0 p
b0 !"
b0 v
1N
1S
b0 [
b101 P
b101 g
b101 y
b101 H
b101 R
b101 G
b101 E
b0 O
b0 ^
b0 T
b0 s
b0 )"
b1010000001001110001 &"
b100000000000001000 #"
b0 ~
b10000000000000001 |
b1 r
b1 w
b1 {
b1011 K
1?
#115
0?
#120
1Q
b0 \
1;
1M
1<
b1 p
b1 q
b10000000000000001 !"
b1 v
b0 o
b0 n
b0 $"
b0 u
b10000 m
b100000 l
b100000 '"
b10 t
0W
b1 d
b1 f
0k
b10000000000000001 ~
b0 #"
b100000000000010000 &"
b110000110101 O
b110000110101 ^
b110000110101 T
b110000110101 s
b110000110101 )"
b0 =
b0 L
b0 U
b0 ]
b110 E
b1100 K
1?
#125
0?
#130
b0 m
b0 l
b0 '"
b0 t
b1 n
b1 o
b10000000000000001 $"
b1 u
1k
0j
b10 f
b110000110101 =
b110000110101 L
b110000110101 U
b110000110101 ]
b1 e
b111 P
b111 g
b111 y
b111 H
b111 R
b0 B
1@
b1 A
b110 G
b111 E
b100000 O
b100000 ^
b100000 T
b100000 s
b100000 )"
b0 &"
b10000000000000001 #"
b1010000000000011001 |
b11001 r
b101 w
b101 {
b1101 K
b0 C
1?
#135
0?
#140
b11001 q
b1111101 p
b1010000000001111101 !"
b101 v
b1 l
b1 '"
b1 m
b1 t
b100000 =
b100000 L
b100000 U
b100000 ]
b10 e
b11 f
0i
1j
b1110000000000110001 |
b110001 r
b111 w
b111 {
b1010000000000011001 ~
b10000000000000001 &"
b0 O
b0 ^
b0 T
b0 s
b0 )"
b10 A
b111 G
b1000 E
b110000110101 B
b1 P
b1 g
b1 y
b1 H
b1 R
b110000110101 C
1@
b1110 K
1?
#145
0?
#150
b1111101 o
b1001110001 n
b1010000001001110001 $"
b101 u
b110001 q
b101010111 p
b1110000000101010111 !"
b111 v
1i
0h
b100 f
b0 =
b0 L
b0 U
b0 ]
b11 e
b0 P
b0 g
b0 y
b0 H
b0 R
b100000 B
b11 A
b1000 G
b1001 E
b1 O
b1 ^
b1 T
b1 s
b1 )"
b1010000000001111101 #"
b1110000000000110001 ~
b10000000000000001 |
b1 r
b1 w
b1 {
b1111 K
b100000 C
1@
1?
#155
0?
#160
b1 q
b1 p
b10000000000000001 !"
b1 v
b101010111 o
b100101100001 n
b1110000100101100001 $"
b111 u
b1001110001 m
b110000110101 l
b110000110101 '"
b101 t
b1 =
b1 L
b1 U
b1 ]
b100 e
b0 f
0N
0S
1h
b0 |
b0 r
b0 w
b0 {
b10000000000000001 ~
b1110000000101010111 #"
b1010000001001110001 &"
b100 A
b1001 G
b1010 E
b0 B
b101 P
b101 g
b101 y
b101 H
b101 R
b0 C
1@
b10000 K
1?
#165
0?
#170
0Q
b0 \
0;
0M
0<
b100101100001 m
b100000110100111 l
b100000110100111 '"
b111 t
b1 o
b1 n
b10000000000000001 $"
b1 u
b0 q
b0 p
b0 !"
b0 v
1N
1S
b0 =
b0 L
b0 U
b0 ]
b0 e
1W
b0 d
b1 B
b101 A
b1010 G
b1011 E
b110000110101 O
b110000110101 ^
b110000110101 T
b110000110101 s
b110000110101 )"
b1110000100101100001 &"
b10000000000000001 #"
b0 ~
b1010000000000011001 |
b11001 r
b101 w
b101 {
b10001 K
b1 C
1@
1?
#175
0?
#180
1Q
b0 \
1;
1M
1<
b1111101 p
b11001 q
b1010000000001111101 !"
b101 v
b0 o
b0 n
b0 $"
b0 u
b1 m
b1 l
b1 '"
b1 t
0W
b1 d
b1 f
0k
b1010000000000011001 ~
b0 #"
b10000000000000001 &"
b100000110100111 O
b100000110100111 ^
b100000110100111 T
b100000110100111 s
b100000110100111 )"
b110000110101 =
b110000110101 L
b110000110101 U
b110000110101 ]
b1100 E
0@
b10010 K
1?
#185
0?
#190
b0 m
b0 l
b0 '"
b0 t
b1001110001 n
b1111101 o
b1010000001001110001 $"
b101 u
1k
0j
b10 f
b100000110100111 =
b100000110100111 L
b100000110100111 U
b100000110100111 ]
b1 e
b111 P
b111 g
b111 y
b111 H
b111 R
b110000110101 B
1@
b110 A
b1011 G
b1101 E
b1 O
b1 ^
b1 T
b1 s
b1 )"
b0 &"
b1010000000001111101 #"
b10011 K
b110000110101 C
1?
#195
0?
#200
b110000110101 l
b110000110101 '"
b1001110001 m
b101 t
b1 =
b1 L
b1 U
b1 ]
b10 e
b11 f
0i
1j
b1110000000000110001 |
b110001 r
b111 w
b111 {
b1010000001001110001 &"
b0 O
b0 ^
b0 T
b0 s
b0 )"
b111 A
b1100 G
b1110 E
b100000110100111 B
b110 P
b110 g
b110 y
b110 H
b110 R
b100000110100111 C
1@
b10100 K
1?
#205
0?
#210
b110001 q
b101010111 p
b1110000000101010111 !"
b111 v
1i
0h
b100 f
b0 =
b0 L
b0 U
b0 ]
b11 e
b1001 P
b1001 g
b1001 y
b1001 H
b1001 R
b1 B
b1000 A
b1101 G
b1111 E
b110000110101 O
b110000110101 ^
b110000110101 T
b110000110101 s
b110000110101 )"
b1110000000000110001 ~
b1100000000000100100 |
b100100 r
b110 w
b110 {
b10101 K
b1 C
1@
1?
#215
0?
#220
b100100 q
b11011000 p
b1100000000011011000 !"
b110 v
b101010111 o
b100101100001 n
b1110000100101100001 $"
b111 u
b110000110101 =
b110000110101 L
b110000110101 U
b110000110101 ]
b100 e
b0 f
0N
0S
1h
b10010000000001010001 |
b1010001 r
b1001 w
b1001 {
b1100000000000100100 ~
b1110000000101010111 #"
b1001 A
b1110 G
b10000 E
b0 B
b111 P
b111 g
b111 y
b111 H
b111 R
b0 C
1@
b10110 K
1?
#225
0?
#230
0Q
b0 \
0;
0M
0<
b100101100001 m
b100000110100111 l
b100000110100111 '"
b111 t
b11011000 o
b10100010000 n
b1100000010100010000 $"
b110 u
b1010001 q
b1011011001 p
b10010000001011011001 !"
b1001 v
1N
1S
b0 e
1W
b0 d
b1001 P
b1001 g
b1001 y
b1001 H
b1001 R
b110000110101 B
b1010 A
b1111 G
b10001 E
b1110000100101100001 &"
b1100000000011011000 #"
b10010000000001010001 ~
b1110000000000110001 |
b110001 r
b111 w
b111 {
b10111 K
b110000110101 C
1@
1?
#235
0?
#240
1Q
b0 \
1;
1M
1<
b110001 q
b101010111 p
b1110000000101010111 !"
b111 v
b1011011001 o
b1100110100001 n
b10010001100110100001 $"
b1001 u
b10100010000 m
b1111001100000 l
b1111001100000 '"
b110 t
0W
b1 d
b1 f
0k
b1110000000000110001 ~
b10010000001011011001 #"
b1100000010100010000 &"
b100000110100111 O
b100000110100111 ^
b100000110100111 T
b100000110100111 s
b100000110100111 )"
b10010 E
0@
b11000 K
1?
#245
0?
#250
b1100110100001 m
b1110011010101001 l
b1110011010101001 '"
b1001 t
b101010111 o
b100101100001 n
b1110000100101100001 $"
b111 u
1k
0j
b10 f
b100000110100111 =
b100000110100111 L
b100000110100111 U
b100000110100111 ]
b1 e
b11 P
b11 g
b11 y
b11 H
b11 R
1@
b1011 A
b10000 G
b10011 E
b1111001100000 O
b1111001100000 ^
b1111001100000 T
b1111001100000 s
b1111001100000 )"
b10010001100110100001 &"
b1110000000101010111 #"
b10010000000001010001 |
b1010001 r
b1001 w
b1001 {
b11001 K
1?
#255
0?
#260
0Q
b0 \
0;
b1010001 q
b1011011001 p
b10010000001011011001 !"
b1001 v
b100101100001 m
b100000110100111 l
b100000110100111 '"
b111 t
0M
b1111001100000 =
b1111001100000 L
b1111001100000 U
b1111001100000 ]
b10 e
b11 f
0i
1j
b110000000000001001 |
b1001 r
b11 w
b11 {
b10010000000001010001 ~
b1110000100101100001 &"
b1110011010101001 O
b1110011010101001 ^
b1110011010101001 T
b1110011010101001 s
b1110011010101001 )"
b1100 A
b10001 G
b10100 E
b100000110100111 B
0D
b100000110100111 C
1@
b11010 K
1?
#265
0?
#270
b1011011001 o
b1100110100001 n
b10010001100110100001 $"
b1001 u
b1001 q
b11011 p
b110000000000011011 !"
b11 v
0k
1i
0h
b100 f
b10 d
b10101 E
b100000110100111 O
b100000110100111 ^
b100000110100111 T
b100000110100111 s
b100000110100111 )"
b10010000001011011001 #"
b110000000000001001 ~
b11011 K
0@
1?
#275
0?
#280
b11011 o
b1010001 n
b110000000001010001 $"
b11 u
b1100110100001 m
b1110011010101001 l
b1110011010101001 '"
b1001 t
b11 d
b0 f
0N
0S
1h
0j
b110000000000011011 #"
b10010001100110100001 &"
b10110 E
b11100 K
1?
#285
0?
#290
b1010001 m
b11110011 l
b11110011 '"
b11 t
0i
1N
1S
b10111 E
b1110011010101001 O
b1110011010101001 ^
b1110011010101001 T
b1110011010101001 s
b1110011010101001 )"
b110000000001010001 &"
b11101 K
1?
#295
0?
#300
b100 d
b1 f
0h
b11110011 O
b11110011 ^
b11110011 T
b11110011 s
b11110011 )"
b11000 E
b11110 K
1?
#305
0?
#310
0N
0S
b10 f
1V
b101 d
b11001 E
b11111 K
1?
#315
0?
#320
b11010 E
b100000 K
1?
#325
0?
#330
b11011 E
b100001 K
1?
#335
0?
#340
b11100 E
b100010 K
1?
#345
0?
#350
b11101 E
b100011 K
1?
#355
0?
#360
1Q
b0 \
1;
1M
b11110 E
1D
b100100 K
1?
#365
0?
#370
b1 \
0Q
1k
b1110011010101001 =
b1110011010101001 L
b1110011010101001 U
b1110011010101001 ]
b11 e
0V
b100 d
0I
b1111001100000 B
1@
b1101 A
b10010 G
b11111 E
b100101 K
b1111001100000 C
1?
#375
0?
#380
b10 \
b1 [
b11 d
b100000110100111 =
b100000110100111 L
b100000110100111 U
b100000110100111 ]
b100 e
1j
0k
b1110 A
b100000 E
b1110011010101001 B
b1110011010101001 C
1@
b100110 K
1?
#385
0?
#390
b11 \
0j
1i
b1110011010101001 =
b1110011010101001 L
b1110011010101001 U
b1110011010101001 ]
b0 e
b10 d
b10 [
b100000110100111 B
b1111 A
b100001 E
b100111 K
b100000110100111 C
1@
1?
#395
0?
#400
b100 \
b11 [
b1 d
b11110011 =
b11110011 L
b11110011 U
b11110011 ]
b1 e
1h
0i
b10000 A
b100010 E
b1110011010101001 B
b1110011010101001 C
1@
b101000 K
1?
#405
0?
#410
0M
0<
b100 \
0h
1N
1S
b1111001100000 =
b1111001100000 L
b1111001100000 U
b1111001100000 ]
b10 e
1W
b0 d
b100 [
b11110011 B
b10001 A
b100011 E
b101001 K
b11110011 C
1@
1?
#415
0?
#420
b101 \
1M
1<
0W
b1 d
b11 f
0N
0S
b11110011 =
b11110011 L
b11110011 U
b11110011 ]
b100100 E
0@
b101010 K
1?
#425
0?
#430
0M
0<
b101 \
b1110011010101001 =
b1110011010101001 L
b1110011010101001 U
b1110011010101001 ]
b11 e
1W
b0 d
b101 [
1@
b10010 A
b100101 E
b101011 K
1?
#435
0?
#440
b100110 E
0@
b101100 K
1?
#445
0?
#450
b100111 E
b101101 K
1?
#455
0?
#460
b101000 E
b101110 K
1?
#465
0?
#470
b100 \
1Q
1I
b101001 E
b101111 K
1?
#475
0?
#480
0Q
b100 [
1k
b10011 G
b101010 E
b1001 P
b1001 g
b1001 y
b1001 H
b1001 R
0I
b110000 K
1?
#485
0?
#490
0k
1j
0D
b101011 E
b110001 K
1?
#495
0?
#500
b11 \
1Q
1i
0j
b101100 E
1I
b110010 K
1?
#505
0?
#510
b10 \
1k
0i
1h
b11 [
1D
b11 P
b11 g
b11 y
b11 H
b11 R
b10100 G
b101101 E
b10010000000001010001 |
b1010001 r
b1001 w
b1001 {
b110011 K
1?
#515
0?
#520
b1 \
b1010001 q
b1011011001 p
b10010000001011011001 !"
b1001 v
b10 [
1N
1S
0h
1j
b110000000000001001 |
b1001 r
b11 w
b11 {
b10010000000001010001 ~
b10101 G
b101110 E
b10 P
b10 g
b10 y
b10 H
b10 R
0D
b110100 K
1?
#525
0?
#530
b10 \
1M
1<
0Q
b1011011001 o
b1100110100001 n
b10010001100110100001 $"
b1001 u
b1001 q
b11011 p
b110000000000011011 !"
b11 v
1i
0N
0S
b100 f
0W
b1 d
b1 [
1D
0I
b101 P
b101 g
b101 y
b101 H
b101 R
b10110 G
b101111 E
b11110011 =
b11110011 L
b11110011 U
b11110011 ]
b10010000001011011001 #"
b110000000000001001 ~
b100000000000000100 |
b100 r
b10 w
b10 {
b110101 K
1?
#535
0?
#540
0M
b10 \
0<
b100 q
b1000 p
b100000000000001000 !"
b10 v
b11011 o
b1010001 n
b110000000001010001 $"
b11 u
b1100110100001 m
b1110011010101001 l
b1110011010101001 '"
b1001 t
b10 [
1W
b0 d
b100000110100111 =
b100000110100111 L
b100000110100111 U
b100000110100111 ]
b100 e
1h
0k
b100000000000000100 ~
b110000000000011011 #"
b10010001100110100001 &"
b10011 A
b110000 E
1@
b110110 K
1?
#545
0?
#550
b1 \
1Q
b1010001 m
b11110011 l
b11110011 '"
b11 t
b1000 o
b10000 n
b100000000000010000 $"
b10 u
0j
1N
1S
1I
b110001 E
b1110011010101001 O
b1110011010101001 ^
b1110011010101001 T
b1110011010101001 s
b1110011010101001 )"
b110000000001010001 &"
b100000000000001000 #"
b110111 K
0@
1?
#555
0?
#560
1M
b1 \
1<
b10000 m
b100000 l
b100000 '"
b10 t
b1 [
0W
b1 d
b0 f
0i
1k
b1010000000000011001 |
b11001 r
b101 w
b101 {
b100000000000010000 &"
b11110011 O
b11110011 ^
b11110011 T
b11110011 s
b11110011 )"
b1110011010101001 =
b1110011010101001 L
b1110011010101001 U
b1110011010101001 ]
b10111 G
b110010 E
b0 P
b0 g
b0 y
b0 H
b0 R
b111000 K
1?
#565
0?
#570
b11001 q
b1111101 p
b1010000000001111101 !"
b101 v
1j
0h
b1 f
b11110011 =
b11110011 L
b11110011 U
b11110011 ]
b0 e
b11 P
b11 g
b11 y
b11 H
b11 R
b1110011010101001 B
1@
b10100 A
b11000 G
b110011 E
b100000 O
b100000 ^
b100000 T
b100000 s
b100000 )"
b1010000000000011001 ~
b0 |
b0 r
b0 w
b0 {
b111001 K
b1110011010101001 C
1?
#575
0?
#580
b0 \
b0 q
b0 p
b0 !"
b0 v
b1111101 o
b1001110001 n
b1010000001001110001 $"
b101 u
0M
b100000 =
b100000 L
b100000 U
b100000 ]
b1 e
b10 f
0N
0S
1i
b110000000000001001 |
b1001 r
b11 w
b11 {
b0 ~
b1010000000001111101 #"
b10101 A
b11001 G
b110100 E
b11110011 B
0D
b11110011 C
1@
b111010 K
1?
#585
0?
#590
0;
0Q
b1001110001 m
b110000110101 l
b110000110101 '"
b101 t
b0 o
b0 n
b0 $"
b0 u
b11011 p
b1001 q
b110000000000011011 !"
b11 v
1h
b0 [
0I
b1 P
b1 g
b1 y
b1 H
b1 R
b11010 G
b110101 E
b1010000001001110001 &"
b0 #"
b110000000000001001 ~
b111011 K
0@
1?
#595
0?
#600
b1010001 n
b11011 o
b110000000001010001 $"
b11 u
b0 m
b0 l
b0 '"
b0 t
1N
1S
0k
b110000000000011011 #"
b0 &"
b110000110101 O
b110000110101 ^
b110000110101 T
b110000110101 s
b110000110101 )"
b110110 E
1I
b111100 K
1?
#605
0?
#610
b11110011 l
b11110011 '"
b1010001 m
b11 t
0j
b11 f
b10 d
b110111 E
b0 O
b0 ^
b0 T
b0 s
b0 )"
b110000000001010001 &"
b111101 K
1?
#615
0?
#620
1Q
b0 \
1;
1M
b11 d
b100 f
0i
b11110011 O
b11110011 ^
b11110011 T
b11110011 s
b11110011 )"
b111000 E
1D
b111110 K
1?
#625
0?
#630
0;
0M
0Q
1k
0h
b0 f
b110000110101 =
b110000110101 L
b110000110101 U
b110000110101 ]
b10 e
0D
0I
b1001 P
b1001 g
b1001 y
b1001 H
b1001 R
b100000 B
1@
b10110 A
b11011 G
b111001 E
b10000000000000001 |
b1 r
b1 w
b1 {
b111111 K
b100000 C
1?
#635
0?
#640
b1 q
b1 p
b10000000000000001 !"
b1 v
b100 d
b1 f
0N
0S
1j
0k
b10000000000000001 ~
b111010 E
0@
b1000000 K
1?
#645
0?
#650
b1 \
1;
1M
b1 o
b1 n
b10000000000000001 $"
b1 u
0j
1i
1D
b111011 E
b10000000000000001 #"
b1000001 K
1?
#655
0?
#660
b1 m
b1 l
b1 '"
b1 t
1Q
b1 [
b11 d
b0 =
b0 L
b0 U
b0 ]
b11 e
1h
0i
b10000000000000001 &"
b10111 A
b111100 E
b110000110101 B
1@
1I
b110000110101 C
b1000010 K
1?
#665
0?
#670
b0 \
0M
1k
0h
1N
1S
b11110011 =
b11110011 L
b11110011 U
b11110011 ]
b100 e
b10 d
0D
b110 P
b110 g
b110 y
b110 H
b110 R
b0 B
b11000 A
b11100 G
b111101 E
b1 O
b1 ^
b1 T
b1 s
b1 )"
b10010000000001010001 |
b1010001 r
b1001 w
b1001 {
b1000011 K
b0 C
1@
1?
#675
0?
#680
b1 \
b1010001 q
b1011011001 p
b10010000001011011001 !"
b1001 v
1M
0Q
b0 [
b11 d
b10 f
0N
0S
1j
b1100000000000100100 |
b100100 r
b110 w
b110 {
b10010000000001010001 ~
b11101 G
b111110 E
b1001 P
b1001 g
b1001 y
b1001 H
b1001 R
1D
0I
0@
b1000100 K
1?
#685
0?
#690
b0 \
0M
1Q
b1011011001 o
b1100110100001 n
b10010001100110100001 $"
b1001 u
b100100 q
b11011000 p
b1100000000011011000 !"
b110 v
0k
1i
b0 e
b10 d
b1 [
0D
1I
b11110011 B
1@
b11001 A
b111111 E
b10010000001011011001 #"
b1100000000000100100 ~
b1000101 K
b11110011 C
1?
#695
0?
#700
b1 \
b11011000 o
b10100010000 n
b1100000010100010000 $"
b110 u
b1100110100001 m
b1110011010101001 l
b1110011010101001 '"
b1001 t
1M
0Q
b0 [
1h
0j
1k
b10010000000001010001 |
b1010001 r
b1001 w
b1001 {
b1100000000011011000 #"
b10010001100110100001 &"
b11110 G
b1000000 E
b111 P
b111 g
b111 y
b111 H
b111 R
1D
0I
0@
b1000110 K
1?
#705
0?
#710
b10 \
b10100010000 m
b1111001100000 l
b1111001100000 '"
b110 t
b1010001 q
b1011011001 p
b10010000001011011001 !"
b1001 v
0k
1j
0i
1N
1S
b1 =
b1 L
b1 U
b1 ]
b1 e
b1 d
b1 [
1@
b11010 A
b1000001 E
b1110011010101001 O
b1110011010101001 ^
b1110011010101001 T
b1110011010101001 s
b1110011010101001 )"
b1100000010100010000 &"
b10010000000001010001 ~
b1000111 K
1?
#715
0?
#720
b1 \
b1011011001 o
b1100110100001 n
b10010001100110100001 $"
b1001 u
0M
1Q
b10 [
b1110011010101001 =
b1110011010101001 L
b1110011010101001 U
b1110011010101001 ]
b10 e
b11 f
0h
1i
0j
b10010000001011011001 #"
b1111001100000 O
b1111001100000 ^
b1111001100000 T
b1111001100000 s
b1111001100000 )"
b11011 A
b1000010 E
b1 B
0D
1I
b1 C
1@
b1001000 K
1?
#725
0?
#730
1M
b1100110100001 m
b1110011010101001 l
b1110011010101001 '"
b1001 t
1k
0i
1h
0N
0S
b100 f
b10 d
b1 [
1D
b1 P
b1 g
b1 y
b1 H
b1 R
b11111 G
b1000011 E
b10010001100110100001 &"
b1110000000000110001 |
b110001 r
b111 w
b111 {
b1001001 K
0@
1?
#735
0?
#740
b10 \
b110001 q
b101010111 p
b1110000000101010111 !"
b111 v
0Q
b1 d
b1111001100000 =
b1111001100000 L
b1111001100000 U
b1111001100000 ]
b11 e
1N
1S
0h
1j
b10000000000000001 |
b1 r
b1 w
b1 {
b1110000000000110001 ~
b1110011010101001 O
b1110011010101001 ^
b1110011010101001 T
b1110011010101001 s
b1110011010101001 )"
b11100 A
b100000 G
b1000100 E
b1110011010101001 B
1@
0I
b1110011010101001 C
b1001010 K
1?
#745
0?
#750
0M
b101010111 o
b100101100001 n
b1110000100101100001 $"
b111 u
b1 q
b1 p
b10000000000000001 !"
b1 v
0k
1i
0N
0S
b0 f
b1110011010101001 =
b1110011010101001 L
b1110011010101001 U
b1110011010101001 ]
b100 e
b10 [
0D
b1111001100000 B
b11101 A
b1000101 E
b1110000000101010111 #"
b10000000000000001 ~
b1001011 K
b1111001100000 C
1@
1?
#755
0?
#760
b1 o
b1 n
b10000000000000001 $"
b1 u
b100101100001 m
b100000110100111 l
b100000110100111 '"
b111 t
1h
0j
b10000000000000001 #"
b1110000100101100001 &"
b1000110 E
0@
b1001100 K
1?
#765
0?
#770
1M
1Q
b1 m
b1 l
b1 '"
b1 t
0i
1N
1S
1D
1I
b1000111 E
b100000110100111 O
b100000110100111 ^
b100000110100111 T
b100000110100111 s
b100000110100111 )"
b10000000000000001 &"
b1001101 K
1?
#775
0?
#780
0M
0Q
b100000110100111 =
b100000110100111 L
b100000110100111 U
b100000110100111 ]
b0 e
b1 f
0h
1k
b1 O
b1 ^
b1 T
b1 s
b1 )"
b11110 A
b100001 G
b1001000 E
b1110011010101001 B
1@
b111 P
b111 g
b111 y
b111 H
b111 R
0D
0I
b1110011010101001 C
b1001110 K
1?
#785
0?
#790
1M
1Q
0k
1j
0N
0S
b10 f
b10 d
1D
1I
b1001001 E
b1001111 K
0@
1?
#795
0?
#800
b1 d
b1 =
b1 L
b1 U
b1 ]
b1 e
1i
0j
1k
b1110000000000110001 |
b110001 r
b111 w
b111 {
b11111 A
b100010 G
b1001010 E
b100000110100111 B
1@
b10 P
b10 g
b10 y
b10 H
b10 R
b100000110100111 C
b1010000 K
1?
#805
0?
